{
  "video": {
    "autoplay": false,
    "duration": 600,
    "dimensions": {
      "width": 400,
      "height": 600,
      "unit": "px"
    }
  },
  "hotspot": {
    "enable": true,
    "templates": [
      {
        "text": "<div class=\"ivp-notification-inside\"><div class=\"ivp-notification-image\"><img src=\"//ixd.invodo.com/ivp-experiences/gopro/pet-bundle/images/HERO4_Silver_Thumbnail_170x170.jpg\"></div><div class=\"ivp-notification-text\"><h3>${text}</h3></div><div class=\"ivp-notification-learn-more\" role=\"button\"><p>Learn More</p></div></div>",
        "_id": "56c7424f97e89909009c6774",
        "id": 1
      },
      {
        "text": "<div class=\"ivp-notification-inside\"><div class=\"ivp-notification-image\"><img src=\"//ixd.invodo.com/ivp-experiences/gopro/pet-bundle/images/Chesty_Thumbnail_170x170.jpg\"></div><div class=\"ivp-notification-text\"><h3>${text}</h3></div><div class=\"ivp-notification-learn-more\" role=\"button\"><p>Learn More</p></div></div>",
        "_id": "56c7416897e89909009c6773",
        "id": 2
      },
      {
        "text": "<div class=\"ivp-notification-inside\"><div class=\"ivp-notification-image\"><img src=\"//ixd.invodo.com/ivp-experiences/gopro/pet-bundle/images/Fetch_Thumbnail_170x170.jpg\"></div><div class=\"ivp-notification-text\"><h3>${text}</h3></div><div class=\"ivp-notification-learn-more\" role=\"button\"><p>Learn More</p></div></div>",
        "_id": "56c7411097e89909009c6772",
        "id": 3
      },
      {
        "text": "<span class=\"ivp-hotspot-icon\"></span>",
        "_id": "55f1a905dda55c0900d0eefe",
        "id": 4
      },
      {
        "text": "<span class=\"ivp-hotspot-icon\"></span><div class=\"ivp-hotspot-title\" role=\"button\" aria-live=\"polite\"><div><span>${text}</span></div></div>",
        "_id": "554d0a9fe9385609007497cb",
        "id": 5
      }
    ],
    "items": [
      {
        "enabled": true,
        "actions": [
          {
            "id": 0,
            "type": "card",
            "target": 3
          }
        ],
        "templateId": "56c7411097e89909009c6772",
        "template": 3,
        "data": {
          "title": "Fetch (Dog Harness)_1",
          "text": "Fetch (Dog Harness)"
        },
        "time": {
          "start": 10,
          "end": 12
        },
        "notification": true,
        "position": {
          "coords": [
            {
              "x": "",
              "y": ""
            }
          ],
          "unit": "%"
        },
        "animate": {
          "duration": {
            "start": 0.25,
            "end": 0.25
          },
          "from": {
            "y": "-100%",
            "height": "0",
            "scale": "0"
          },
          "config": [
            {
              "scale": "1",
              "y": "0%",
              "height": "145px"
            },
            {
              "scale": "0",
              "opacity": 0,
              "height": 0
            }
          ]
        },
        "card": "56c739f897e89909009c6759",
        "$$hashKey": "07D",
        "id": 0,
        "title": "Fetch (Dog Harness)_1",
        "type": "notify"
      },
      {
        "enabled": true,
        "actions": [
          {
            "id": 0,
            "type": "card",
            "target": 2
          }
        ],
        "templateId": "56c7416897e89909009c6773",
        "template": 2,
        "data": {
          "title": "Chesty (Chest Harness)",
          "text": "Chesty (Chest Harness)"
        },
        "time": {
          "start": 16,
          "end": 20
        },
        "notification": true,
        "position": {
          "coords": [
            {
              "x": "",
              "y": ""
            }
          ],
          "unit": "%"
        },
        "animate": {
          "duration": {
            "start": 0.25,
            "end": 0.25
          },
          "from": {
            "y": "-100%",
            "height": "0",
            "scale": "0"
          },
          "config": [
            {
              "scale": "1",
              "y": "0%",
              "height": "145px"
            },
            {
              "scale": "0",
              "opacity": 0,
              "height": 0
            }
          ]
        },
        "card": "56c73a9c97e89909009c6760",
        "$$hashKey": "07E",
        "id": 1,
        "title": "Chesty (Chest Harness)",
        "type": "notify"
      },
      {
        "enabled": true,
        "actions": [
          {
            "id": 0,
            "type": "card",
            "target": 3
          }
        ],
        "templateId": "56c7411097e89909009c6772",
        "template": 3,
        "data": {
          "title": "Fetch (Dog Harness)_2",
          "text": "Fetch (Dog Harness)"
        },
        "time": {
          "start": 21,
          "end": 53
        },
        "notification": true,
        "position": {
          "coords": [
            {
              "x": "",
              "y": ""
            }
          ],
          "unit": "%"
        },
        "animate": {
          "duration": {
            "start": 0.25,
            "end": 0.25
          },
          "from": {
            "y": "-100%",
            "height": "0",
            "scale": "0"
          },
          "config": [
            {
              "scale": "1",
              "y": "0%",
              "height": "145px"
            },
            {
              "scale": "0",
              "opacity": 0,
              "height": 0
            }
          ]
        },
        "card": "56c739f897e89909009c6759",
        "$$hashKey": "07F",
        "id": 2,
        "title": "Fetch (Dog Harness)_2",
        "type": "notify"
      },
      {
        "enabled": true,
        "actions": [
          {
            "id": 0,
            "type": "card",
            "target": 1
          }
        ],
        "templateId": "56c7424f97e89909009c6774",
        "template": 1,
        "data": {
          "title": "HERO4 Silver",
          "text": "HERO4 Silver"
        },
        "time": {
          "start": 56,
          "end": 65
        },
        "notification": true,
        "position": {
          "coords": [
            {
              "x": "",
              "y": ""
            }
          ],
          "unit": "%"
        },
        "animate": {
          "duration": {
            "start": 0.25,
            "end": 0.25
          },
          "from": {
            "y": "-100%",
            "height": "0",
            "scale": "0"
          },
          "config": [
            {
              "scale": "1",
              "y": "0%",
              "height": "145px"
            },
            {
              "scale": "0",
              "opacity": 0,
              "height": 0
            }
          ]
        },
        "card": "56c73c2097e89909009c6767",
        "$$hashKey": "07G",
        "id": 3,
        "title": "HERO4 Silver",
        "type": "notify"
      },
      {
        "enabled": true,
        "actions": [
          {
            "id": 0,
            "type": "card",
            "target": 3
          }
        ],
        "templateId": "55f1a905dda55c0900d0eefe",
        "template": 4,
        "data": {
          "title": "Fetch (Dog Harness)_1_beacon",
          "text": "Capture the world from your dog's point of view."
        },
        "time": {
          "start": 10,
          "end": 12
        },
        "notification": false,
        "position": {
          "coords": [
            {
              "x": 52.17948717948718,
              "y": 9.567198177676538
            }
          ],
          "unit": "%"
        },
        "animate": {
          "duration": {
            "start": 0.5,
            "end": 0.25
          },
          "from": {
            "y": 10,
            "opacity": 0,
            "scale": 0.85
          },
          "config": [
            {
              "y": 0,
              "opacity": 1,
              "scale": 1
            },
            {
              "opacity": 0,
              "y": 10
            }
          ]
        },
        "card": "56c739f897e89909009c6759",
        "$$hashKey": "07H",
        "id": 4,
        "title": "Fetch (Dog Harness)_1_beacon"
      },
      {
        "enabled": true,
        "actions": [
          {
            "id": 0,
            "type": "card",
            "target": 2
          }
        ],
        "templateId": "55f1a905dda55c0900d0eefe",
        "template": 4,
        "data": {
          "title": "Chesty (Chest Harness)_beacon",
          "text": "Capture ultra immersive footage from your chest."
        },
        "time": {
          "start": 16,
          "end": 18.4
        },
        "notification": false,
        "position": {
          "coords": [
            {
              "x": 32.94871794871795,
              "y": 45.10250569476082
            }
          ],
          "unit": "%"
        },
        "animate": {
          "duration": {
            "start": 0.5,
            "end": 0.25
          },
          "from": {
            "y": 10,
            "opacity": 0,
            "scale": 0.85
          },
          "config": [
            {
              "y": 0,
              "opacity": 1,
              "scale": 1
            },
            {
              "opacity": 0,
              "y": 10
            }
          ]
        },
        "card": "56c73a9c97e89909009c6760",
        "$$hashKey": "07I",
        "id": 5,
        "title": "Chesty (Chest Harness)_beacon"
      },
      {
        "enabled": true,
        "actions": [
          {
            "id": 0,
            "type": "card",
            "target": 3
          }
        ],
        "templateId": "55f1a905dda55c0900d0eefe",
        "template": 4,
        "data": {
          "title": "Fetch (Dog Harness)_2_beacon",
          "text": "Capture the world from your dog's point of view."
        },
        "time": {
          "start": 25.85,
          "end": 29.5
        },
        "notification": false,
        "position": {
          "coords": [
            {
              "x": 30.641025641025642,
              "y": 69.70387243735763
            }
          ],
          "unit": "%"
        },
        "animate": {
          "duration": {
            "start": 0.5,
            "end": 0.25
          },
          "from": {
            "y": 10,
            "opacity": 0,
            "scale": 0.85
          },
          "config": [
            {
              "y": 0,
              "opacity": 1,
              "scale": 1
            },
            {
              "opacity": 0,
              "y": 10
            }
          ]
        },
        "card": "56c739f897e89909009c6759",
        "$$hashKey": "07J",
        "id": 6,
        "title": "Fetch (Dog Harness)_2_beacon"
      },
      {
        "enabled": true,
        "actions": [
          {
            "id": 0,
            "type": "card",
            "target": 1
          }
        ],
        "templateId": "55f1a905dda55c0900d0eefe",
        "template": 4,
        "data": {
          "title": "HERO4 Silver_beacon",
          "text": "High-performance capture. Touch-display convenience."
        },
        "time": {
          "start": 56,
          "end": 58.2
        },
        "notification": false,
        "position": {
          "coords": [
            {
              "x": 29.35897435897436,
              "y": 66.74259681093395
            }
          ],
          "unit": "%"
        },
        "animate": {
          "duration": {
            "start": 0.5,
            "end": 0.25
          },
          "from": {
            "y": 10,
            "opacity": 0,
            "scale": 0.85
          },
          "config": [
            {
              "y": 0,
              "opacity": 1,
              "scale": 1
            },
            {
              "opacity": 0,
              "y": 10
            }
          ]
        },
        "card": "56c73c2097e89909009c6767",
        "$$hashKey": "07K",
        "id": 7,
        "title": "HERO4 Silver_beacon"
      },
      {
        "enabled": true,
        "actions": [
          {
            "id": 0,
            "type": "card",
            "target": 0
          }
        ],
        "templateId": "554d0a9fe9385609007497cb",
        "template": 5,
        "data": {
          "title": "Summary Card",
          "text": "none"
        },
        "time": {
          "start": 74,
          "end": 75
        },
        "notification": true,
        "position": {
          "coords": [
            {
              "x": "",
              "y": ""
            }
          ],
          "unit": "%"
        },
        "animate": {
          "duration": {
            "start": 0.25,
            "end": 0.25
          },
          "from": {
            "y": "-100%",
            "height": "0",
            "scale": "0"
          },
          "config": [
            {
              "scale": "1",
              "y": "0%",
              "height": "145px"
            },
            {
              "scale": "0",
              "opacity": 0,
              "height": 0
            }
          ]
        },
        "card": "56c73edd97e89909009c676e",
        "$$hashKey": "07L",
        "id": 8,
        "title": "Summary Card",
        "type": "notify"
      }
    ]
  },
  "card": {
    "enabled": true,
    "templates": [
      {
        "text": "<div class=\"ivp-card--large\">\n  <div class=\"ivp-card-content\">\n    <div class=\"ivp-container\">\n      <div class=\"ivp-row\">\n        <div class=\"ivp-col-12 ivp-end-card-text\">\n          <h3>Included in this Bundle</h3>\n        </div>\n        <div class=\"ivp-col-12 ivp-end-card-image\">\n          <img src=\"${image}\">\n        </div>\n      </div>\n    </div>\n  </div>\n  <div class=\"ivp-gopro-card-footer\">\n    <div class=\"ivp-container\">\n      <div class=\"ivp-row\">\n        <div class=\"ivp-col-6\">\n          <h3 class=\"ivp-gopro-bundle-name\">${bundle}</h3>\n          <p class=\"ivp-gopro-card-price\">${price}</p>\n        </div>\n        <div class=\"ivp-col-6\">\n          <div class=\"ivp-card-ctas\"><a class=\"ivp-card-cta ivp-card-cta--primary\" href=\"#\" target=\"_blank\">Add Bundle To Cart</a></div>\n        </div>\n      </div>\n    </div>\n  </div>\n</div>",
        "_id": "560b048abcd8cb090051c29c",
        "id": 1
      },
      {
        "text": "<div class=\"ivp-card--large\">\n  <div class=\"ivp-card-content\">\n    <div class=\"ivp-container\">\n      <div class=\"ivp-row\">\n        <div class=\"ivp-col-8 ivp-card-text\">\n          <h3>${product}</h3>\n          <hr>\n          <p class=\"ivp-gopro-card-description\">${description}</p>\n          <p class=\"ivp-gopro-card-compat\">${compat}</p>\n        </div>\n        <div class=\"ivp-col-4 ivp-card-image\">\n          <img src=\"${image}\">\n        </div>\n      </div>\n    </div>\n  </div>\n  <div class=\"ivp-gopro-card-footer\">\n    <div class=\"ivp-container\">\n      <div class=\"ivp-row\">\n        <div class=\"ivp-col-6\">\n          <h3 class=\"ivp-gopro-bundle-name\">${bundle}</h3>\n          <p class=\"ivp-gopro-card-price\">${price}</p>\n          <div class=\"ivp-gopro-cart-status\">\n            <span class=\"ivp-gopro-cart-icon\"></span> Added to Cart</div>\n        </div>\n        <div class=\"ivp-col-6\">\n          <div class=\"ivp-card-ctas\"><a class=\"ivp-card-cta ivp-card-cta--primary\" href=\"#\" target=\"_blank\">Add Bundle To Cart</a></div>\n        </div>\n      </div>\n    </div>\n  </div>\n</div>",
        "_id": "560b0462bcd8cb090051c29b",
        "id": 2
      }
    ],
    "items": [
      {
        "_id": "56c73edd97e89909009c676e",
        "title": "GoPro_Pet_Bundle_Summary",
        "template": 1,
        "data": {
          "image": "//ixd.invodo.com/ivp-experiences/gopro/pet-bundle/images/bundle-summary-pet.jpg",
          "bundle": "PET BUNDLE",
          "price": "US$499.00"
        },
        "size": "medium",
        "animate": {
          "duration": {
            "start": 0.3,
            "end": 0.3
          },
          "from": {
            "opacity": 0,
            "top": "50%",
            "right": 0
          },
          "config": [
            {
              "y": "-50%",
              "opacity": 1
            },
            {
              "opacity": 0,
              "y": "-54%"
            }
          ]
        },
        "id": 0,
        "position": {
          "x": "-15%",
          "y": "10%"
        }
      },
      {
        "_id": "56c73c2097e89909009c6767",
        "title": "GoPro_Pet_Bundle_HERO4_Silver",
        "template": 2,
        "data": {
          "product": "HERO4 Silver",
          "description": "High-performance capture. Touch-display convenience.",
          "compat": "",
          "image": "//ixd.invodo.com/ivp-experiences/gopro/pet-bundle/images/HERO4_Silver_Thumbnail_170x170.jpg",
          "bundle": "PET BUNDLE",
          "price": "US$499.00"
        },
        "size": "medium",
        "animate": {
          "duration": {
            "start": 0.3,
            "end": 0.3
          },
          "from": {
            "opacity": 0,
            "top": "50%",
            "right": 0
          },
          "config": [
            {
              "y": "-50%",
              "opacity": 1
            },
            {
              "opacity": 0,
              "y": "-54%"
            }
          ]
        },
        "id": 1,
        "position": {
          "x": "-15%",
          "y": "10%"
        }
      },
      {
        "_id": "56c73a9c97e89909009c6760",
        "title": "GoPro_Pet_Bundle_Chesty",
        "template": 2,
        "data": {
          "product": "Chesty (Chest Harness)",
          "description": "Capture ultra immersive footage from your chest.",
          "compat": "",
          "image": "//ixd.invodo.com/ivp-experiences/gopro/pet-bundle/images/Chesty_Thumbnail_170x170.jpg",
          "bundle": "PET BUNDLE",
          "price": "US$499.00"
        },
        "size": "medium",
        "animate": {
          "duration": {
            "start": 0.3,
            "end": 0.3
          },
          "from": {
            "opacity": 0,
            "top": "50%",
            "right": 0
          },
          "config": [
            {
              "y": "-50%",
              "opacity": 1
            },
            {
              "opacity": 0,
              "y": "-54%"
            }
          ]
        },
        "id": 2,
        "position": {
          "x": "-15%",
          "y": "10%"
        }
      },
      {
        "_id": "56c739f897e89909009c6759",
        "title": "GoPro_Pet_Bundle_Fetch",
        "template": 2,
        "data": {
          "product": "Fetch (Dog Harness)",
          "description": "Capture the world from your dog's point of view.",
          "compat": "",
          "image": "//ixd.invodo.com/ivp-experiences/gopro/pet-bundle/images/Fetch_Thumbnail_170x170.jpg",
          "bundle": "PET BUNDLE",
          "price": "US$499.00"
        },
        "size": "medium",
        "animate": {
          "duration": {
            "start": 0.3,
            "end": 0.3
          },
          "from": {
            "opacity": 0,
            "top": "50%",
            "right": 0
          },
          "config": [
            {
              "y": "-50%",
              "opacity": 1
            },
            {
              "opacity": 0,
              "y": "-54%"
            }
          ]
        },
        "id": 3,
        "position": {
          "x": "-15%",
          "y": "10%"
        }
      }
    ]
  },
  "panels":{
     "enable":true,
     "templates":[],
     "items":[]
  },
  "poster":{
     "templates":[
        {
           "id":1,
           "text":"<div class=\"ivp-gopro-header-container\"> <h2>CAPTURE YOUR PET MOMENTS</h2> </div> <div class=\"ivp-gopro-play-box\"> <div class=\"ivp-gopro-play-box-content\"> <p>Watch Video</p><div class=\"ivp-gopro-poster-play\"></div> </div> </div>"
        }
     ],
     "items":[
        {
           "id":1,
           "enabled":true,
           "template":1,
           "data":{}
        }
     ]
  },
  "endscreen":{
     "templates":[
        {
           "id":1,
           "text":"<div class=\"ivp-gopro-header-container\"> <h2>Capture Your Pet Moments</h2> </div> <div class=\"ivp-gopro-play-box\"> <div class=\"ivp-gopro-play-box-content\"> <img class=\"ivp-gopro-poster-replay\" src=\"//ixd.invodo.com/ivp-experiences/gopro/skiing/images/replay.png\"/><p>Replay Video</p> </div> </div>"
        }
     ],
     "items":[
        {
           "id":1,
           "enabled":true,
           "template":1,
           "data":{}
        }
     ]
  }
}
